graph treillis_simple {

    node [shape = none];

    a [pos = "0,2!", label = "{ camion }"];
    b [pos = "2,2!", label = "{ véhicule }"];
    c [pos = "4,2!", label = "{ voiture }"];

    ab [pos = "0,1!", label = "{ camion, véhicule }"];
    ac [pos = "2,1!", label = "{ camion, voiture }"];
    bc [pos = "4,1!", label = "{ véhicule, voiture }"];

    abc [pos = "2,0!" label = "{ camion, véhicule, voiture }"];

    a:s -- ab:n;
    a:s -- ac:n;



    c:s -- ac:n;
    c:s -- bc:n;

    ac:s -- abc:n;

    subgraph Fvehicule {
        edge [color = orange];

        b:s -- ab:n;
        b:s -- bc:n;

        ab:s -- abc:n;

        bc:s -- abc:n;
    }
}