\relax 
\providecommand\hyper@newdestlabel[2]{}
\catcode `:\active 
\catcode `;\active 
\catcode `!\active 
\catcode `?\active 
\providecommand\HyperFirstAtBeginDocument{\AtBeginDocument}
\HyperFirstAtBeginDocument{\ifx\hyper@anchor\@undefined
\global\let\oldcontentsline\contentsline
\gdef\contentsline#1#2#3#4{\oldcontentsline{#1}{#2}{#3}}
\global\let\oldnewlabel\newlabel
\gdef\newlabel#1#2{\newlabelxx{#1}#2}
\gdef\newlabelxx#1#2#3#4#5#6{\oldnewlabel{#1}{{#2}{#3}}}
\AtEndDocument{\ifx\hyper@anchor\@undefined
\let\contentsline\oldcontentsline
\let\newlabel\oldnewlabel
\fi}
\fi}
\global\let\hyper@last\relax 
\gdef\HyperFirstAtBeginDocument#1{#1}
\providecommand\HyField@AuxAddToFields[1]{}
\providecommand\HyField@AuxAddToCoFields[2]{}
\select@language{french}
\@writefile{toc}{\select@language{french}}
\@writefile{lof}{\select@language{french}}
\@writefile{lot}{\select@language{french}}
\citation{DBLPCleuziouD15}
\@writefile{toc}{\contentsline {section}{\numberline {1}Introduction}{4}{section.1}}
\@writefile{toc}{\contentsline {subsection}{\numberline {1.1}Travaux pr\IeC {\'e}c\IeC {\'e}dents}{4}{subsection.1.1}}
\@writefile{toc}{\contentsline {section}{\numberline {2}Introduction aux domaines}{4}{section.2}}
\@writefile{toc}{\contentsline {subsection}{\numberline {2.1}Espaces pr\IeC {\'e}topologiques}{4}{subsection.2.1}}
\@writefile{toc}{\contentsline {subsubsection}{\numberline {2.1.1}D\IeC {\'e}finition}{4}{subsubsection.2.1.1}}
\@writefile{toc}{\contentsline {subsubsection}{\numberline {2.1.2}Adh\IeC {\'e}rences et ferm\IeC {\'e}s}{4}{subsubsection.2.1.2}}
\citation{largeron2002pretopological}
\@writefile{toc}{\contentsline {subsubsection}{\numberline {2.1.3}Espace pr\IeC {\'e}topologique de type ${\cal  V}$}{5}{subsubsection.2.1.3}}
\@writefile{toc}{\contentsline {subsection}{\numberline {2.2}Apprentissage automatique}{5}{subsection.2.2}}
\@writefile{toc}{\contentsline {subsubsection}{\numberline {2.2.1}Apprentissage automatique supervis\IeC {\'e}}{5}{subsubsection.2.2.1}}
\@writefile{lot}{\contentsline {table}{\numberline {1}{\ignorespaces Ensemble d'observations \emph  {Sortir jouer au tennis}\relax }}{5}{table.caption.3}}
\providecommand*\caption@xref[2]{\@setref\relax\@undefined{#1}}
\newlabel{tab:jouerTennis}{{1}{5}{Ensemble d'observations \emph {Sortir jouer au tennis}\relax }{table.caption.3}{}}
\@writefile{toc}{\contentsline {section}{\numberline {3}Mod\IeC {\'e}lisation d'un espace pr\IeC {\'e}topologique}{6}{section.3}}
\@writefile{toc}{\contentsline {subsection}{\numberline {3.1}DNF positives et espaces pr\IeC {\'e}topologiques de type ${\cal  V}$}{6}{subsection.3.1}}
\@writefile{toc}{\contentsline {subsection}{\numberline {3.2}Propri\IeC {\'e}t\IeC {\'e}s}{7}{subsection.3.2}}
\@writefile{lof}{\contentsline {figure}{\numberline {1}{\ignorespaces Structure de r\IeC {\'e}f\IeC {\'e}rence et relations de voisinages\relax }}{8}{figure.caption.4}}
\newlabel{fig:relationsSimples}{{1}{8}{Structure de référence et relations de voisinages\relax }{figure.caption.4}{}}
\@writefile{toc}{\contentsline {section}{\numberline {4}Espaces pr\IeC {\'e}topologiques et apprentissage automatique}{8}{section.4}}
\@writefile{toc}{\contentsline {subsection}{\numberline {4.1}Apprentissage d'une DNF}{8}{subsection.4.1}}
\@writefile{lot}{\contentsline {table}{\numberline {2}{\ignorespaces Ensemble d'apprentissage d\IeC {\'e}duit des relations de la figure \ref  {fig:relationsSimples}\relax }}{9}{table.caption.5}}
\newlabel{tab:ensembleApprentissageSimple}{{2}{9}{Ensemble d'apprentissage déduit des relations de la figure \ref {fig:relationsSimples}\relax }{table.caption.5}{}}
\@writefile{toc}{\contentsline {subsection}{\numberline {4.2}L'apprentissage multi-instances \IeC {\`a} la rescousse}{9}{subsection.4.2}}
\citation{dietterich1997solving}
\@writefile{lot}{\contentsline {table}{\numberline {3}{\ignorespaces Ensemble d'apprentissage d\IeC {\'e}duit des relations de la figure \ref  {fig:relationsSimples}\relax }}{10}{table.caption.6}}
\newlabel{tab:ensembleApprentissageSimpleMIL}{{3}{10}{Ensemble d'apprentissage déduit des relations de la figure \ref {fig:relationsSimples}\relax }{table.caption.6}{}}
\@writefile{toc}{\contentsline {subsubsection}{\numberline {4.2.1}Apprentissage multi-instances}{10}{subsubsection.4.2.1}}
\@writefile{lof}{\contentsline {figure}{\numberline {2}{\ignorespaces treillis des \IeC {\'e}l\IeC {\'e}ments de $E = \{camion, vehicule, voiture\}$\relax }}{11}{figure.caption.7}}
\newlabel{fig:simpleTreillis}{{2}{11}{treillis des éléments de $E = \{camion, vehicule, voiture\}$\relax }{figure.caption.7}{}}
\@writefile{toc}{\contentsline {section}{\numberline {5}Apprentissage d'un espace pr\IeC {\'e}topologique dans un cadre multi-instances}{11}{section.5}}
\@writefile{toc}{\contentsline {subsection}{\numberline {5.1}Probl\IeC {\`e}me du nombre de sacs}{11}{subsection.5.1}}
\@writefile{toc}{\contentsline {subsubsection}{\numberline {5.1.1}Repr\IeC {\'e}sentation d'un ferm\IeC {\'e} \IeC {\'e}l\IeC {\'e}mentaire par un treillis}{11}{subsubsection.5.1.1}}
\@writefile{toc}{\contentsline {subsubsection}{\numberline {5.1.2}Nombre de sacs positifs}{12}{subsubsection.5.1.2}}
\@writefile{toc}{\contentsline {subsubsection}{\numberline {5.1.3}Nombre de sacs n\IeC {\'e}gatifs}{12}{subsubsection.5.1.3}}
\@writefile{toc}{\contentsline {paragraph}{$F(x) = E$}{12}{equation.5.8}}
\@writefile{toc}{\contentsline {paragraph}{$F(x) \subset E$}{12}{equation.5.9}}
\@writefile{lof}{\contentsline {figure}{\numberline {3}{\ignorespaces Nombre de sacs positifs par rapport \IeC {\`a} la taille du ferm\IeC {\'e}\relax }}{13}{figure.caption.8}}
\citation{clark1989cn2}
\@writefile{lof}{\contentsline {figure}{\numberline {4}{\ignorespaces Treillis avec $E = \{ a, b, c, d \}$\relax }}{14}{figure.caption.11}}
\newlabel{fig:treillisDoublon}{{4}{14}{Treillis avec $E = \{ a, b, c, d \}$\relax }{figure.caption.11}{}}
\@writefile{toc}{\contentsline {subsubsection}{\numberline {5.1.4}D\IeC {\'e}nombrage exact des sacs}{14}{subsubsection.5.1.4}}
\@writefile{toc}{\contentsline {subsection}{\numberline {5.2}Algorithme}{14}{subsection.5.2}}
\citation{blockeel2005multi}
\citation{DBLPCleuziouD15}
\@writefile{toc}{\contentsline {subsubsection}{\numberline {5.2.1}Induction d'une DNF par CN2}{15}{subsubsection.5.2.1}}
\@writefile{loa}{\contentsline {algocf}{\numberline {1}{\ignorespaces CN2\relax }}{15}{algocf.1}}
\@writefile{loa}{\contentsline {algocf}{\numberline {2}{\ignorespaces MeilleureClause\relax }}{15}{algocf.2}}
\@writefile{toc}{\contentsline {subsection}{\numberline {5.3}M\IeC {\'e}triques}{15}{subsection.5.3}}
\@writefile{lot}{\contentsline {table}{\numberline {4}{\ignorespaces Score de pr\IeC {\'e}cision et rappel obtenus\relax }}{16}{table.caption.14}}
\newlabel{tab:scores}{{4}{16}{Score de précision et rappel obtenus\relax }{table.caption.14}{}}
\@writefile{toc}{\contentsline {section}{\numberline {6}Conclusion}{16}{section.6}}
\citation{*}
\bibstyle{plainnat}
\bibdata{rapport.bib}
\bibcite{belmandt2011basics}{{1}{2011}{{Belmandt}}{{}}}
\bibcite{blockeel2005multi}{{2}{2005}{{Blockeel et~al.}}{{Blockeel, Page, and Srinivasan}}}
\bibcite{clark1989cn2}{{3}{1989}{{Clark and Niblett}}{{}}}
\bibcite{cleuziou2015structuration}{{4}{2015}{{Cleuziou}}{{}}}
\bibcite{DBLPCleuziouD15}{{5}{2015}{{Cleuziou and Dias}}{{}}}
\bibcite{cleuziou2015qassit}{{6}{2015}{{Cleuziou et~al.}}{{Cleuziou, Buscaldi, Levorato, and Largeron}}}
\bibcite{dietterich1997solving}{{7}{1997}{{Dietterich et~al.}}{{Dietterich, Lathrop, and Lozano-P{\'e}rez}}}
\bibcite{largeron2002pretopological}{{8}{2002}{{Largeron and Bonnevay}}{{}}}
